# This is a sample input file for the tRecX-code.
# This inputfile demonstrates a finite absorption range with a FEM-DVR basis.

# In the following line you can adjust the parameters for exterior complex scaling. Upper denotes the scaling radius R_0.
Absorption: axis,upper,theta,unitary
X,25,0.5,false

# Try to vary the order of the calculation and see how the accuracy changes.
Axis: name,nCoefficients,lower end, upper end,functions,order
X,1200,-150,150,grid[0.0],11

Operator: hamiltonian=1/2<d_1_d>-<1/sqrt(Q*Q+2)>
Operator: interaction=iLaserA0[t]<1_d>

# Adjust the following lines to change the laser parameters.
Laser: shape, I(W/cm2), FWHM, lambda(nm)
cos2, 2.e14, 3 OptCyc, 800.

# Adjust the following lines to set different time propagation limits.
TimePropagation: begin,end,print,accuracy
-3 OptCyc, 3 OptCyc, 0.25 OptCyc, 1.e-10

# Remember to adjust the plotrange if you set the ECS-radius to lower than 25.
# The shape of the wavefunction outside R_0 is not properly defined.
Plot: axis,points,lowerBound,upperBound,digits
X,101,-25,25,15
